Proyecto4/Counter/solution1/csim/build/counter.vcd
$date
     Aug 12, 2018       15:40:53
$end

$version
 SystemC 2.3.1-Accellera --- Mar  5 2018 14:23:08
$end

$timescale
     1 ps
$end

$scope module SystemC $end
$var wire    1  aaaaa  clock       $end
$var wire    1  aaaab  reset       $end
$var wire    1  aaaac  enable       $end
$var wire    1  aaaad  mode       $end
$var wire   12  aaaae  count [11:0]  $end
$upscope $end
$enddefinitions  $end

$comment
All initial values are dumped below at time 1e-09 sec = 1000 timescale units.
$end

$dumpvars
0aaaaa
1aaaab
1aaaac
1aaaad
b1 aaaae
$end

#2000
1aaaaa
b10 aaaae

#3000
0aaaaa

#4000
1aaaaa
b11 aaaae

#5000
0aaaaa

#6000
1aaaaa
b100 aaaae

#7000
0aaaaa

#8000
1aaaaa
b101 aaaae

#9000
0aaaaa

#10000
1aaaaa
b110 aaaae

#11000
0aaaaa
0aaaab
b0 aaaae

#12000
1aaaaa

#13000
0aaaaa

#14000
1aaaaa

#15000
0aaaaa

#16000
1aaaaa

#17000
0aaaaa

#18000
1aaaaa

#19000
0aaaaa

#20000
1aaaaa

#21000
0aaaaa

#22000
1aaaaa

#23000
0aaaaa

#24000
1aaaaa

#25000
0aaaaa

#26000
1aaaaa

#27000
0aaaaa

#28000
1aaaaa

#29000
0aaaaa

#30000
1aaaaa

#31000
0aaaaa
1aaaab
b1 aaaae

#32000
1aaaaa
b10 aaaae

#33000
0aaaaa

#34000
1aaaaa
b11 aaaae

#35000
0aaaaa

#36000
1aaaaa
b100 aaaae

#37000
0aaaaa

#38000
1aaaaa
b101 aaaae

#39000
0aaaaa

#40000
1aaaaa
b110 aaaae

#41000
0aaaaa
0aaaad
b101 aaaae

#42000
1aaaaa
b100 aaaae

#43000
0aaaaa

#44000
1aaaaa
b11 aaaae

#45000
0aaaaa

#46000
1aaaaa
b10 aaaae

#47000
0aaaaa

#48000
1aaaaa
b1 aaaae

#49000
0aaaaa

#50000
1aaaaa
b0 aaaae

#51000
0aaaaa

#52000
1aaaaa
b111111111111 aaaae

#53000
0aaaaa

#54000
1aaaaa
b111111111110 aaaae

#55000
0aaaaa

#56000
1aaaaa
b111111111101 aaaae

#57000
0aaaaa

#58000
1aaaaa
b111111111100 aaaae

#59000
0aaaaa

#60000
1aaaaa
b111111111011 aaaae

#61000
0aaaaa

#62000
1aaaaa
b111111111010 aaaae

#63000
0aaaaa

#64000
1aaaaa
b111111111001 aaaae

#65000
0aaaaa

#66000
1aaaaa
b111111111000 aaaae

#67000
0aaaaa

#68000
1aaaaa
b111111110111 aaaae

#69000
0aaaaa

#70000
1aaaaa
b111111110110 aaaae

#71000
0aaaaa

#72000
1aaaaa
b111111110101 aaaae

#73000
0aaaaa

#74000
1aaaaa
b111111110100 aaaae

#75000
0aaaaa

#76000
1aaaaa
b111111110011 aaaae

#77000
0aaaaa

#78000
1aaaaa
b111111110010 aaaae

#79000
0aaaaa

#80000
1aaaaa
b111111110001 aaaae

#81000
0aaaaa
0aaaac

